[
   {
      "IsCompleted":false,
      "Prefix":"numberof",
      "Sufix":"jumps with audio",
      "Amount":50,
      "progress":0,
      "AchievementGooglePlayId":"CgkIs_atga4aEAIQAQ"
   },
   {
      "IsCompleted":false,
      "Prefix":"numberof",
      "Sufix":"souls collected",
      "Amount":150,
      "progress":0,
      "AchievementGooglePlayId":"CgkIs_atga4aEAIQAg"
   },
   {
      "IsCompleted":false,
      "Prefix":"numberof",
      "Sufix":"stars achieved",
      "Amount":1,
      "progress":0,
      "AchievementGooglePlayId":"CgkIs_atga4aEAIQAw"
   },
   {
      "IsCompleted":false,
      "Prefix":"numberof",
      "Sufix":"spikes death",
      "Amount":50,
      "progress":0,
      "AchievementGooglePlayId":"CgkIs_atga4aEAIQBA"
   },
   {
      "IsCompleted":false,
      "Prefix":"numberof",
      "Sufix":"water deaths",
      "Amount":50,
      "progress":0,
      "AchievementGooglePlayId":"CgkIs_atga4aEAIQBQ"
   },
   {
      "IsCompleted":false,
      "Prefix":"numberof",
      "Sufix":"roller deaths",
      "Amount":50,
      "progress":0,
      "AchievementGooglePlayId":"CgkIs_atga4aEAIQBg"
   },
   {
      "IsCompleted":false,
      "Prefix":"complete",
      "Sufix":"All the levels",
      "Amount":1,
      "progress":0,
      "AchievementGooglePlayId":"CgkIs_atga4aEAIQBw"
   },
   {
      "IsCompleted":false,
      "Prefix":"complete a level",
      "Sufix":"without revive",
      "Amount":1,
      "progress":0,
      "AchievementGooglePlayId":"CgkIs_atga4aEAIQCA"
   },
   {
      "IsCompleted":false,
      "Prefix":"complete a level",
      "Sufix":"without collecting a single soul",
      "Amount":1,
      "progress":0,
      "AchievementGooglePlayId":"CgkIs_atga4aEAIQCQ"
   },
   {
      "IsCompleted":false,
      "Prefix":"find the",
      "Sufix":"hidden soul",
      "Amount":1,
      "progress":0,
      "AchievementGooglePlayId":"CgkIs_atga4aEAIQCg"
   },
   {
      "IsCompleted":false,
      "Prefix":"Login ",
      "Sufix":"3 consecutive days",
      "Amount":3,
      "progress":0,
      "AchievementGooglePlayId":""
   }
]